{
  "KR": {
    "alertMsg1": "로그인 하지 않은 사용자 입니다. 로그인 해주세요.",
    "commonText1000": "정보를 불러오는 중입니다.",
    "noneResult": "조회결과가 없습니다."
  },
  "JP": {
    "alertMsg1": "ログインしていないユーザーです。ログインしてください。",
    "commonText1000": "情報を読み込んでいます。",
    "noneResult": "照会結果がありません。"
  },
  "HK": {
    "alertMsg1": "尚未登錄的用戶,請登錄後使用。",
    "commonText1000": "正在等待信息中",
    "noneResult": "沒有查詢的結果。"
  },
  "EN": {
    "alertMsg1": "User without log-in. Please log-in first.",
    "commonText1000": "Loading information.",
    "noneResult": "No check result."
  },
  "VN": {
    "alertMsg1": "Người sử dụng chưa đăng nhập. Vui lòng đăng nhập.",
    "commonText1000": "Đang tải thông tin về.",
    "noneResult": "Không có kết quả tìm kiếm."
  },
  "TH": {
    "alertMsg1": "เป็นผู้ใช้ที่ไม่ได้ล๊อกอิน กรุณาล๊อกอินเข้าสู่ระบบ",
    "commonText1000": "กำลังเรียกดูข้อมูล",
    "noneResult": "ไม่พบข้อมูลที่ค้นหา"
  },
  "CN": {
    "alertMsg1": "您尚未登录，请登录网站。",
    "commonText1000": "正在等待信息中",
    "noneResult": "没有查询的结果。"
  },
  "RU": {
    "alertMsg1": "Вы не авторизовались. Пожалуйста, войдите в систему.",
    "commonText1000": "Выполняется загрузка информации.",
    "noneResult": "Результатов поиска нет."
  }
}