{
  "KR": {
    "before_baggage_text1000": "사전 수하물 구매",
    "before_baggage_text1001": "사전 수하물 안내",
    "before_baggage_text1002": "최초 출발시간 기준 24시간 전",
    "before_baggage_text1002_1": "까지 구매 가능",
    "before_baggage_text1003": "국제선∙국내선 이용 가능",
    "before_baggage_text1003_1": "",
    "before_baggage_text1004": "사전수하물 온라인 구매",
    "before_baggage_text1004_1": " 최대 40% 할인",
    "before_baggage_text1004_2": "사전수하물 온라인 구매 시 할인 제공",
    "before_baggage_text1005": "출발 당일 공항 구매 시 정규운임 적용",
    "before_baggage_text1006": "사전 수하물을 구매하면 추가 할인을 받을 수 있습니다.",
    "before_baggage_text1007": "사전 수하물 구매는 첫 구간 출발 24시간 전까지 구매 가능합니다.",
    "before_baggage_text1008": "유의사항",
    "before_baggage_text1009": "구매한 수하물은",
    "before_baggage_text1009_1": " 본인만 이용가능",
    "before_baggage_text1011": "출발 3일 전 부터",
    "before_baggage_text1011_1": " 환불 불가",
    "before_baggage_text1013": "예약/발권 완료 후 마이페이지에서 별도로 구매가 가능합니다.",
    "before_baggage_text1014": "여정 변경 시 구매한 수하물은 자동 취소(환불)되며 추후 재구매가 가능합니다.(단, 출발 24시간 전부터 환불 불가)",
    "before_baggage_text1015": "해당 부가서비스는 제주항공 공식홈페이지를 통해 항공권 예약 시 구매가 가능합니다.",
    "before_baggage_text1016": "여행사를 통해 사전에 항공권을 구매하신 승객들은 제주항공 전용번호 070-7420-1688(평일 오전10시오후16시,여행사 티켓 전용)에서 부가서비스를 구매할 수 있습니다.",
    "before_baggage_text1017": "예약센터를 통해 항공권을 구매하신 승객들은 제주항공 예약센터 1599-1500에서 부가서비스를 구매할 수 있습니다.",
    "before_baggage_text1018": "부가서비스는 단독으로 변경 또는 취소가 불가합니다.",
    "before_baggage_text1019": "사전 구매하신 수하물은 수속 카운터에서 위탁접수시에만 사용/이용 가능합니다. (탑승게이트에서 사용 불가)",
    "before_baggage_text1020": "출발 24시간 전부터\n환불 불가",
    "before_baggage_system_fees_prefix": "서비스 환불 시 ",
    "before_baggage_system_fees_underline": "시스템 사용료",
    "before_baggage_system_fees_suffix": "가 부과됩니다. (부가서비스 환불 규정 참고)"
  },
  "JP": {
    "before_baggage_text1000": "超過手荷物の事前購入",
    "before_baggage_text1001": "超過手荷物の事前購入について",
    "before_baggage_text1002": "最初出発の24時間前までお買い求めになれます。",
    "before_baggage_text1002_1": "",
    "before_baggage_text1003": "国内線∙国際線利用可能",
    "before_baggage_text1003_1": "",
    "before_baggage_text1004": "オンラインでお買い上げいただきますと、最大40%割引された金額で、超過手荷物の事前購入サービスをご利用になれます。",
    "before_baggage_text1004_1": "",
    "before_baggage_text1004_2": "超過手荷物のオンラインの事前購入の場合割引提供。",
    "before_baggage_text1005": "出発当日に空港では正規料金でご利用いただけます。",
    "before_baggage_text1006": "事前に超過手荷物をお買い上げいただけますと、追加割引された金額でご利用になれます。",
    "before_baggage_text1007": "超過手荷物の事前購入は、最初出発時刻を基準に、24時間の前までお買い求めになれます。",
    "before_baggage_text1008": "ご注意事項",
    "before_baggage_text1009": "お買い上げいただいた超過手荷物はご本人のみご利用いただけます。",
    "before_baggage_text1009_1": "",
    "before_baggage_text1011": "出発３日前からは払戻できません。",
    "before_baggage_text1011_1": "",
    "before_baggage_text1013": "ご予約・発券が完了された後には、マイページでお買い上げいただけます。",
    "before_baggage_text1014": "旅程を変更されますと、事前にお買い上げいただいた超過手荷物は、自動キャンセル(払戻）され、改めてお買い求めになれます。（但し、出発時間を基準に24時間前から払い戻しできません。）",
    "before_baggage_text1015": "当該付加サービスは、チェジュ航空の公式ホームページで航空券をご予約される時に、お買い求めになれます。",
    "before_baggage_text1016": "旅行社を通して、事前に航空券をお買い上げいただいた乗客様は、チェジュ航空の専用連絡先070-7420-1688（平日：午前10時～午後16時、旅行社チケット専用）から付加サービスをお買い求めになれます。",
    "before_baggage_text1017": "予約センターを通して、航空券をお買い上げいただいた乗客様は、チェジュ航空のご予約センター1599-1500から付加サービスをお買い求めになれます。",
    "before_baggage_text1018": "付加サービスは単独で変更、または取消できません。",
    "before_baggage_text1019": "購入された手荷物はお手続きカウンターでのみ受託可能です。（搭乗ゲート使用不可）",
    "before_baggage_text1020": "出発時間を基準に24時間前から払い戻しできません。",
    "before_baggage_system_fees_prefix": "払い戻し時に",
    "before_baggage_system_fees_underline": "システム使用料",
    "before_baggage_system_fees_suffix": "が課金されます (参照: 付加サービスの払い戻しに関する規定)"
  },
  "HK": {
    "before_baggage_text1000": "提前購買行李",
    "before_baggage_text1001": "提前行李指南",
    "before_baggage_text1002": "均在最初出發時間爲基凖24小時前可購買",
    "before_baggage_text1002_1": "",
    "before_baggage_text1003": "可以利用 (國內/國際航班)",
    "before_baggage_text1003_1": "",
    "before_baggage_text1004": "網絡上提前購買行李可享最多6折優惠",
    "before_baggage_text1004_1": "",
    "before_baggage_text1004_2": "網上購買時提供額外優惠",
    "before_baggage_text1005": "出發當日在機場購買時適用常規費用",
    "before_baggage_text1006": "提前購買行李可享額外優惠。",
    "before_baggage_text1007": "提前行李均在最初出發時間爲基凖24小時前可購買。",
    "before_baggage_text1008": "注意事項",
    "before_baggage_text1009": "購買的行李僅可本人利用",
    "before_baggage_text1009_1": "",
    "before_baggage_text1011": "出發3天前起不予退款",
    "before_baggage_text1011_1": "",
    "before_baggage_text1013": "預訂/購票完畢後均在我的頁面中可另行購買。",
    "before_baggage_text1014": "變更行程時購買的行李將自動取消（退款），之後可重購。（但，航班起飛時間為基準24小時前起不得退款）",
    "before_baggage_text1015": "透過濟州航空官網預訂機票時，可購買其附加服務。",
    "before_baggage_text1016": "透過旅行社提前購票的旅客，均在濟州航空專用電話070-7420-1688（營業日上午10點至下午4點，旅行社專用）可購買附加服務。",
    "before_baggage_text1017": "透過預訂中心購票的旅客，均在濟州航空預訂中心1599-1500可購買附加服務。",
    "before_baggage_text1018": "附加服務不可單獨變更或取消。",
    "before_baggage_text1019": "購買的‘提前購買行李’服務僅在手續台可利用。 （不可在登機口利用）",
    "before_baggage_text1020": "航班起飛時間為基準24小時前起不得退款",
    "before_baggage_system_fees_prefix": "退款時將收繳",
    "before_baggage_system_fees_underline": "系統使用費",
    "before_baggage_system_fees_suffix": "。(請參考附加服務退款規定)"
  },
  "EN": {
    "before_baggage_text1000": "advance luggage purchase",
    "before_baggage_text1001": "advance luggage information",
    "before_baggage_text1002": "May be purchased up to 24 hours prior to first departure time.",
    "before_baggage_text1002_1": "",
    "before_baggage_text1003": "Available (Domestic∙International Flights)",
    "before_baggage_text1003_1": "",
    "before_baggage_text1004": "If advance luggage is purchased online, up to 40% will be discounted.",
    "before_baggage_text1004_1": "",
    "before_baggage_text1004_2": "Special discount for online pre-paid baggage",
    "before_baggage_text1005": "Regular fare will be applied if purchased at airport on te day of departure.",
    "before_baggage_text1006": "Additional discount is available if advance luggage is purchased.",
    "before_baggage_text1007": "Advance luggage purchase may be purchased up to 24 hours prior to first departure time.",
    "before_baggage_text1008": "Notice",
    "before_baggage_text1009": "Purchased luggage may be used only by the purchaser",
    "before_baggage_text1009_1": "",
    "before_baggage_text1011": "No refund after 3 days prior to departure date.",
    "before_baggage_text1011_1": "",
    "before_baggage_text1013": "May be purchased separately on Mypage after reservation/ticketing.",
    "before_baggage_text1014": "Pre-paid baggage will be canceled and refunded, if you make changes on your booking information. (Refund is not possible from 24 hours before departure time.)",
    "before_baggage_text1015": "Extra services may be purchased when making flight reservation through official web page of Jeju Air.",
    "before_baggage_text1016": "Passengers who purchased tickets through travel agency may purchase extra services through Jeju Air's exclusive line: 070-7420-1688 (Weekdays 10 am~ 4 pm, for tickets purchased through travel agency only).",
    "before_baggage_text1017": "Passengers who purchased tickets through reservation center may purchase extra services through Jeju Air reservation ceneter: 1599-1500.",
    "before_baggage_text1018": "Extra service may not be changed or cancelled without consent.",
    "before_baggage_text1019": "Pre-paid baggage service is only available at check-in counters.(Not allowed to use at the boarding gate)",
    "before_baggage_text1020": "Refund is not possible from 24 hours before departure time.",
    "before_baggage_system_fees_prefix": "",
    "before_baggage_system_fees_underline": "System fees",
    "before_baggage_system_fees_suffix": " will be charged upon refund. (Please refer to Policies on Refund of Additional Service Fees)"
  },
  "VN": {
    "before_baggage_text1000": "Mua hành lý trước",
    "before_baggage_text1001": "Hướng dẫn mua hành lý trước",
    "before_baggage_text1002": "Có thể mua trước đến trước giờ khởi khởi hành 24 tiếng",
    "before_baggage_text1002_1": "",
    "before_baggage_text1003": "Có thể sử dụng (Đường bay nội địa/quốc tế)",
    "before_baggage_text1003_1": "",
    "before_baggage_text1004": "Mua hành lý trước trên mạng được giảm giá tối đa 40%",
    "before_baggage_text1004_1": "",
    "before_baggage_text1004_2": "Giảm giá trên hành lý đặt vé trước trực tuyến",
    "before_baggage_text1005": "Áp dụng cước chính thức khi mua tại sân bay trong ngày khởi hành",
    "before_baggage_text1006": "Quý khách sẽ được giảm giá bổ sung nếu mua hành lý trước.",
    "before_baggage_text1007": "Có thể mua hành lý trước đến trước giờ khởi hành 24 tiếng.",
    "before_baggage_text1008": "Những điều cần lưu ý",
    "before_baggage_text1009": "Hành lý đã mua chỉ có thể sử dụng cho bản thân",
    "before_baggage_text1009_1": "",
    "before_baggage_text1011": "Không thể hoàn trả kể từ trước ngày khởi hành 3 ngày",
    "before_baggage_text1011_1": "",
    "before_baggage_text1013": "Có thể mua riêng trong phần Trang của tôi sau khi đặt vé/ xuất vé.",
    "before_baggage_text1014": "Hành lý ký gửi đã mua khi thay đổi hành trình có thể mua lại sau khi hủy (hoàn tiền) tự động. (không thể hoàn trả trước giờ khởi hành 24 tiếng)",
    "before_baggage_text1015": "Dịch vụ gia tăng có thể mua khi đặt vé trên trang web chính thức của Hãng hàng không Jeju.",
    "before_baggage_text1016": "Các hành khách đã mua vé trước qua các công ty du lịch có thể mua dịch vụ gia tăng theo số điện thoại của Hãng hàng không Jeju 070-7420-1688 (Dành riêng cho vé mua tại các đại lý, từ 10 giờ sáng ~ 16 giờ chiều các ngày trong tuần).",
    "before_baggage_text1017": "Các hành khách đã mua vé qua Trung tâm đặt vé có thể mua dịch vụ gia tăng theo số 1599-150, Trung tâm đặt vé của Hãng hàng không Jeju.",
    "before_baggage_text1018": "Dịch vụ gia tăng không thể hủy hoặc thay đổi riêng.",
    "before_baggage_text1019": "Dịch vụ gửi hành lý trả trước chỉ có tại quầy làm thủ tục trả phòng.(Không được sử dụng tại cổng nội trú)",
    "before_baggage_text1020": "không thể hoàn trả trước giờ khởi hành 24 tiếng",
    "before_baggage_system_fees_prefix": "",
    "before_baggage_system_fees_underline": "Phí sử dụng hệ thống",
    "before_baggage_system_fees_suffix": " sẽ được thu khi hoàn tiền. (Tham khảo quy định hoàn trả dịch vụ gia tăng)"
  },
  "TH": {
    "before_baggage_text1000": "ซื้อน้ำหนักสัมภาระล่วงหน้า",
    "before_baggage_text1001": "แนะนะการซื้อน้ำหนักสัมภาระล่วงหน้า",
    "before_baggage_text1002": "สามารถซื้อได้อย่างช้าที่สุด ก่อนเครื่องออก 24ชั่วโมง",
    "before_baggage_text1002_1": "",
    "before_baggage_text1003": "สามารถชำระได้ (เที่ยวบินภายในประเทศ / ระหว่างประเทศ)",
    "before_baggage_text1003_1": "",
    "before_baggage_text1004": "เมื่อซื้อน้ำหนักสัมภาระล่วงหน้าออนไลน์ ท่านอาจได้รับส่วนลดสูงสุดถึง 40%",
    "before_baggage_text1004_1": "",
    "before_baggage_text1004_2": "ส่วนลดในการรับสัมภาระออนไลน์ล่วงหน้า",
    "before_baggage_text1005": "หากท่านชำระค่าน้ำหนักสัมภาระในวันเดินทางที่สนามบิน จะต้องจ่ายในราคาปกติ",
    "before_baggage_text1006": "ท่านจะได้รับส่วนลดเพิ่ม เมื่อเลือกชำระค่าน้ำหนักสัมภาระล่วงหน้า",
    "before_baggage_text1007": "ท่านสามารถชำระค่าน้ำหนักสัมภาระล่วงหน้าได้อย่างช้าที่สุด ก่อนเครื่องออก 24 ชั่วโมง",
    "before_baggage_text1008": "ข้อควรทราบ",
    "before_baggage_text1009": "ท่านต้องใช้น้ำหนักสัมภาระที่ซื้อไว้ ด้วยตนเองเท่านั้น",
    "before_baggage_text1009_1": "",
    "before_baggage_text1011": "ไม่สามารถยกเลิกและขอเงินคืนได้   ในช่วง3วัน ก่อนวันออกเดินทาง",
    "before_baggage_text1011_1": "",
    "before_baggage_text1013": "เมื่อจองและออกตั๋วเรียบร้อยแล้ว สามารถซื้อได้ ที่หน้า 'หน้าของฉัน'",
    "before_baggage_text1014": "เมื่อท่านเปลี่ยนกำหนดการเดินทาง น้ำหนักสัมภาระที่ซื้อไว้จะถูกยกเลิกโดยอัตโนมัติ(คืนเงิน) ท่านสามารถซื้อได้ใหม่อีกครั้ง (ไม่สามารถขอเงินคืนได้ ตั้งแต่ 24ชม. ก่อนเครื่องออก ในว้นเดินทางแรกสุด)",
    "before_baggage_text1015": "ท่านจะสามารถซื้อได้บริการเสริมพิเศษนี้ เมื่อทำการจอง ที่หน้าเวบเพจของสายการบินเจจู",
    "before_baggage_text1016": "สำหรับผู้โดยสารที่ซื้อตั๋วกับตัวแทนจำหน่าย สามารถซื้อบริการนี้โดยผ่าน คอลเซนเตอร์สายการบินเจจูได้ที่ 070-7420-1688 (ตั้งแต่เวลา 10.00~16.00น , ฝ่าย ตัวเทนจำหน่ายตั๋ว)",
    "before_baggage_text1017": "สำหรับผู้โดยสารที่ซื้อตั๋วกับศูนย์จองตั๋ว ท่านสามารถซื้อบริการเสริมพิเศษนี้ได้ที่ ศูนย์จองตั๋วสายการบินเจจู 1599-1500",
    "before_baggage_text1018": "ท่านจะไม่สามารถยกเลิกหรือเปลี่ยนแปลงบริการเสริมพิเศษนี้ เพียงอย่างเดียวได้",
    "before_baggage_text1019": "Предоплаченная багажная услуга доступна только на стойках регистрации.(Не разрешается использовать на посадке)",
    "before_baggage_text1020": "ไม่สามารถขอเงินคืนได้ ตั้งแต่ 24ชม. ก่อนเครื่องออก ในว้นเดินทางแรกสุด",
    "before_baggage_system_fees_prefix": "",
    "before_baggage_system_fees_underline": "ค่าใช้บริการระบบ",
    "before_baggage_system_fees_suffix": "จะถูกเรียกเก็บเมื่อได้รับเงินคืน (ดูที่ระเบียบการบริการเสริมพิเศษ)"
  },
  "CN": {
    "before_baggage_text1000": "提前购买行李",
    "before_baggage_text1001": "提前行李指南",
    "before_baggage_text1002": "均在最初出发时间为基准24小时前可购买",
    "before_baggage_text1002_1": "",
    "before_baggage_text1003": "可以利用 (国内/国际航班)",
    "before_baggage_text1003_1": "",
    "before_baggage_text1004": "网上提前购买行李可享最多6折优惠",
    "before_baggage_text1004_1": "",
    "before_baggage_text1004_2": "网上购买时提供额外优惠",
    "before_baggage_text1005": "出发当日在机场购买时适用常规费用",
    "before_baggage_text1006": "提前购买行李可享额外优惠。",
    "before_baggage_text1007": "提前行李均在最初出发时间为基准24小时前可购买。",
    "before_baggage_text1008": "注意事项",
    "before_baggage_text1009": "购买的行李仅可本人利用",
    "before_baggage_text1009_1": "",
    "before_baggage_text1011": "出发3天前起不予退款",
    "before_baggage_text1011_1": "",
    "before_baggage_text1013": "预订/购票完毕后均在我的页面中可另行购买。",
    "before_baggage_text1014": "变更行程时购买的行李将自动取消（退款），之后可重购。（但，航班起飞时间为基准24小时前起不得退款）",
    "before_baggage_text1015": "通过济州航空官网预订机票时，可购买其附加服务。",
    "before_baggage_text1016": "通过旅行社提前购票的旅客，均在济州航空专用电话070-7420-1688（营业日上午10点至下午4点，旅行社专用）可购买附加服务。",
    "before_baggage_text1017": "通过预订中心购票的旅客，均在济州航空预订中心1599-1500可购买附加服务。",
    "before_baggage_text1018": "附加服务不可单独变更或取消。",
    "before_baggage_text1019": "购买的‘提前购买行李’服务仅在手续台可利用。 （不可在登机口利用）",
    "before_baggage_text1020": "航班起飞时间为基准24小时前起不得退款",
    "before_baggage_system_fees_prefix": "退款时将收缴",
    "before_baggage_system_fees_underline": "系统使用费",
    "before_baggage_system_fees_suffix": "。(请参考附加服务退款规定)"
  },
  "RU": {
    "before_baggage_text1000": "Приобретение предоплаченной нормы багажа",
    "before_baggage_text1001": "Информация о предоплаченной норме багажа",
    "before_baggage_text1002": "Можно приобрести, не позже, чем за 24 часа до времени первого вылета",
    "before_baggage_text1002_1": " ", 
    "before_baggage_text1003": "Имеющийся (Внутренние/Международные рейсы)",
    "before_baggage_text1003_1": "",
    "before_baggage_text1004": "Приобретение предоплаченной нормы багажа в режиме онлайн:",
    "before_baggage_text1004_1": " Скидка до 40%",
    "before_baggage_text1004_2": "Скидка достопна для онлайн предоплаченная норма багажа",
    "before_baggage_text1005": "При покупке в день отправления в аэропорту применяется обычный тариф",
    "before_baggage_text1006": "В случае приобретения предоплаченной норме багажа, вы можете получить дополнительную скидку.",
    "before_baggage_text1007": "Приобретение предоплаченной нормы багажа возможно, не позже, чем за 24 часа до времени первого вылета.",
    "before_baggage_text1008": "Примечания",
    "before_baggage_text1009": "Предоплаченная норма багажа",
    "before_baggage_text1009_1": " может быть использована только самим пассажиром",
    "before_baggage_text1011": "Начиная с 3 дней до вылета,",
    "before_baggage_text1011_1": " возврат денег невозможен",
    "before_baggage_text1013": "Приобретение возможно отдельно на 'Моей странице' после завершения бронирования/выпуска авиабилета.",
    "before_baggage_text1014": "При изменении маршрута, предоплаченная норма багажа автоматически отменяется (производится возврат денег), и после этого возможна повторная покупка. (возврат денег недоступен за 24 часа до времени вылета)",
    "before_baggage_text1015": "Приобретение соответствующей дополнительной услуги возможно во время бронирования авиабилета через официальный сайт ДЖЕДЖУ ЭЙР.",
    "before_baggage_text1016": "Пассажиры, которые приобрели свои билеты через туристические агентства, могут купить дополнительные услуги по номеру ДЖЕДЖУ ЭЙР: 070-7420-1688(будние дни: 10:00 ~ 16:00, для билетов туристических агентств).",
    "before_baggage_text1017": "Пассажиры, которые приобрели свои билеты через туристические агентства, могут приобрести дополнительные услуги по номеру ДЖЕДЖУ ЭЙР: 070-7420-1688(будние дни: 10:00 ~ 16:00, для билетов туристических агентств).",
    "before_baggage_text1018": "Дополнительные услуги не могут быть изменены или отменены отдельно.",
    "before_baggage_text1019": "Предоплаченная багажная услуга доступна только на стойках регистрации.(Не разрешается использовать на посадке)",
    "before_baggage_text1020": "возврат денег недоступен за 24 часа до времени вылета",
    "before_baggage_system_fees_prefix": "",
    "before_baggage_system_fees_underline": "Плата за использование системы",
    "before_baggage_system_fees_suffix": " будет взиматься при возврате. (обратитесь к разделу Правила о возврате денег за дополнительные услуги“)"
  }
}
